…
###### 

create a dataframe of the flights that departed two hours late or more
======================================================================

###### 

``` r
dep_late <- filter(flights, dep_delay >= "120")
dep_late
```

    ## # A tibble: 108,587 x 19
    ##     year month   day dep_time sched_dep_time dep_delay arr_time sched_arr_time
    ##    <int> <int> <int>    <int>          <int>     <dbl>    <int>          <int>
    ##  1  2013     1     1      517            515         2      830            819
    ##  2  2013     1     1      533            529         4      850            830
    ##  3  2013     1     1      542            540         2      923            850
    ##  4  2013     1     1      608            600         8      807            735
    ##  5  2013     1     1      613            610         3      925            921
    ##  6  2013     1     1      623            610        13      920            915
    ##  7  2013     1     1      632            608        24      740            728
    ##  8  2013     1     1      644            636         8      931            940
    ##  9  2013     1     1      702            700         2     1058           1014
    ## 10  2013     1     1      709            700         9      852            832
    ## # … with 108,577 more rows, and 11 more variables: arr_delay <dbl>,
    ## #   carrier <chr>, flight <int>, tailnum <chr>, origin <chr>, dest <chr>,
    ## #   air_time <dbl>, distance <dbl>, hour <dbl>, minute <dbl>, time_hour <dttm>
…
``` r
airline_flight_summ
```

    ## # A tibble: 336,776 x 20
    ##     year month   day dep_time sched_dep_time dep_delay arr_time sched_arr_time
    ##    <int> <int> <int>    <int>          <int>     <dbl>    <int>          <int>
    ##  1  2013     1     1      517            515         2      830            819
    ##  2  2013     1     1      533            529         4      850            830
    ##  3  2013     1     1      542            540         2      923            850
    ##  4  2013     1     1      544            545        -1     1004           1022
    ##  5  2013     1     1      554            600        -6      812            837
    ##  6  2013     1     1      554            558        -4      740            728
    ##  7  2013     1     1      555            600        -5      913            854
    ##  8  2013     1     1      557            600        -3      709            723
    ##  9  2013     1     1      557            600        -3      838            846
    ## 10  2013     1     1      558            600        -2      753            745
    ## # … with 336,766 more rows, and 12 more variables: arr_delay <dbl>,
    ## #   carrier <chr>, flight <int>, tailnum <chr>, origin <chr>, dest <chr>,
    ## #   air_time <dbl>, distance <dbl>, hour <dbl>, minute <dbl>, time_hour <dttm>,
    ## #   airline_flight_summ <chr>

###### 

Create a data frame showing how many flights each aircraft flew for each carrier
================================================================================

###### 

``` r
flights_grouped <- group_by(flights, carrier, tailnum)
flights_grouped
```

    ## # A tibble: 336,776 x 19
    ## # Groups:   carrier, tailnum [4,067]
    ##     year month   day dep_time sched_dep_time dep_delay arr_time sched_arr_time
    ##    <int> <int> <int>    <int>          <int>     <dbl>    <int>          <int>
    ##  1  2013     1     1      517            515         2      830            819
    ##  2  2013     1     1      533            529         4      850            830
    ##  3  2013     1     1      542            540         2      923            850
    ##  4  2013     1     1      544            545        -1     1004           1022
    ##  5  2013     1     1      554            600        -6      812            837
    ##  6  2013     1     1      554            558        -4      740            728
    ##  7  2013     1     1      555            600        -5      913            854
    ##  8  2013     1     1      557            600        -3      709            723
    ##  9  2013     1     1      557            600        -3      838            846
    ## 10  2013     1     1      558            600        -2      753            745
    ## # … with 336,766 more rows, and 11 more variables: arr_delay <dbl>,
    ## #   carrier <chr>, flight <int>, tailnum <chr>, origin <chr>, dest <chr>,
    ## #   air_time <dbl>, distance <dbl>, hour <dbl>, minute <dbl>, time_hour <dttm>

``` r
final_flight_info <- group_by(summarize(flights_grouped, tailnum, n(),.groups = 'drop'))
final_flight_info
```

    ## # A tibble: 336,776 x 3
    ##    carrier tailnum `n()`
    ##    <chr>   <chr>   <int>
    ##  1 9E      N146PQ      8
    ##  2 9E      N146PQ      8
    ##  3 9E      N146PQ      8
    ##  4 9E      N146PQ      8
    ##  5 9E      N146PQ      8
    ##  6 9E      N146PQ      8
    ##  7 9E      N146PQ      8
    ##  8 9E      N146PQ      8
    ##  9 9E      N153PQ      5
    ## 10 9E      N153PQ      5
    ## # … with 336,766 more rows
